%YAML 1.1
%TAG !u! tag:unity3d.com,2011:
--- !u!1045 &1
EditorBuildSettings:
  m_ObjectHideFlags: 0
  serializedVersion: 2
  m_Scenes:
  - enabled: 1
    path: Assets/Scenes/Scene_Thomas.unity
    guid: 8bc0264752aaff4439b1442b55b370b0
  m_configObjects: {}
